…
``` r
modelr::add_residuals(nyc_airbnb, fit) %>% 
  ggplot(aes(x = stars, y = resid)) +
  geom_point()
```

<img src="linear_models_files/figure-gfm/residual-1.png" width="90%" />

Could also add predictions.

``` r
modelr::add_predictions(nyc_airbnb, fit)
```

    ## # A tibble: 40,492 × 6
    ##    price stars borough neighbourhood room_type        pred
    ##    <dbl> <dbl> <chr>   <chr>         <chr>           <dbl>
    ##  1    99   5   Bronx   City Island   Private room     89.5
    ##  2   200  NA   Bronx   City Island   Private room     NA  
    ##  3   300  NA   Bronx   City Island   Entire home/apt  NA  
    ##  4   125   5   Bronx   City Island   Entire home/apt  89.5
    ##  5    69   5   Bronx   City Island   Private room     89.5
    ##  6   125   5   Bronx   City Island   Entire home/apt  89.5
    ##  7    85   5   Bronx   City Island   Entire home/apt  89.5
    ##  8    39   4.5 Bronx   Allerton      Private room     73.5
    ##  9    95   5   Bronx   Allerton      Entire home/apt  89.5
    ## 10   125   4.5 Bronx   Allerton      Entire home/apt  73.5
    ## # … with 40,482 more rows
…
Transform log odds to probabilities for each subject.

``` r
baltimore_df %>% 
  modelr::add_predictions(fit_logistic) %>% 
  mutate(fitted_prob = boot::inv.logit(pred))
```

    ## # A tibble: 2,827 × 6
    ##    resolved victim_age victim_race victim_sex    pred fitted_prob
    ##       <dbl>      <dbl> <fct>       <chr>        <dbl>       <dbl>
    ##  1        0         17 Black       Male       -0.654        0.342
    ##  2        0         26 Black       Male       -0.720        0.327
    ##  3        0         21 Black       Male       -0.683        0.335
    ##  4        1         61 White       Male       -0.131        0.467
    ##  5        1         46 Black       Male       -0.864        0.296
    ##  6        1         27 Black       Male       -0.727        0.326
    ##  7        1         21 Black       Male       -0.683        0.335
    ##  8        1         16 Black       Male       -0.647        0.344
    ##  9        1         21 Black       Male       -0.683        0.335
    ## 10        1         44 Black       Female      0.0297       0.507
    ## # … with 2,817 more rows
